<?xml version="1.0"?>
<VTKFile type="PolyData" version="1.0" byte_order="LittleEndian" header_type="UInt64">
  <PolyData>
    <Piece NumberOfPoints="4" NumberOfVerts="0" NumberOfLines="0" NumberOfStrips="0" NumberOfPolys="1">
      <PointData>
      </PointData>
      <CellData>
      </CellData>
      <Points>
        <DataArray type="Float32" Name="Points" NumberOfComponents="3" format="binary" RangeMin="1.4142135813e-10" RangeMax="0.44721360216">
          MAAAAAAAAAAAAAAA/+bbrv/m264AAAAA/+bbrs3MzD4AAAAAzcxMPs3MzD4AAAAAzcxMPv/m264=
        </DataArray>
      </Points>
      <Verts>
        <DataArray type="Int64" Name="connectivity" format="binary" RangeMin="1e+299" RangeMax="-1e+299">
          AAAAAAAAAAA=
        </DataArray>
        <DataArray type="Int64" Name="offsets" format="binary" RangeMin="1e+299" RangeMax="-1e+299">
          AAAAAAAAAAA=
        </DataArray>
      </Verts>
      <Lines>
        <DataArray type="Int64" Name="connectivity" format="binary" RangeMin="1e+299" RangeMax="-1e+299">
          AAAAAAAAAAA=
        </DataArray>
        <DataArray type="Int64" Name="offsets" format="binary" RangeMin="1e+299" RangeMax="-1e+299">
          AAAAAAAAAAA=
        </DataArray>
      </Lines>
      <Strips>
        <DataArray type="Int64" Name="connectivity" format="binary" RangeMin="1e+299" RangeMax="-1e+299">
          AAAAAAAAAAA=
        </DataArray>
        <DataArray type="Int64" Name="offsets" format="binary" RangeMin="1e+299" RangeMax="-1e+299">
          AAAAAAAAAAA=
        </DataArray>
      </Strips>
      <Polys>
        <DataArray type="Int64" Name="connectivity" format="binary" RangeMin="0" RangeMax="3">
          IAAAAAAAAAAAAAAAAAAAAAEAAAAAAAAAAgAAAAAAAAADAAAAAAAAAA==
        </DataArray>
        <DataArray type="Int64" Name="offsets" format="binary" RangeMin="4" RangeMax="4">
          CAAAAAAAAAAEAAAAAAAAAA==
        </DataArray>
      </Polys>
    </Piece>
  </PolyData>
</VTKFile>
